MOLNIYA 2-9             
1 07276U 74026A   23159.17787828  .00000191  00000+0  00000+0 0  9998
2 07276  64.2817 178.8729 6379593 276.3952  19.5273  2.45098293257935
MOLNIYA 2-10            
1 07376U 74056A   23158.91558625  .00001170  00000+0  00000+0 0  9992
2 07376  64.6591  57.3214 6806454 283.6069  13.9402  2.01109156357509
MOLNIYA 1-S             
1 07392U 74060A   23160.01255473  .00000105  00000+0  00000+0 0  9991
2 07392   4.2114 277.3391 0011078 217.6457 177.0908  1.00320234123087
MOLNIYA 1-29            
1 07780U 75036A   23159.11002076  .00000364  00000+0 -96863-1 0  9996
2 07780  63.4211 177.3324 6752670 286.8051  13.3860  2.00592093352754
MOLNIYA 2-14            
1 08195U 75081A   23159.96371959 -.00000843  00000+0  00000+0 0  9997
2 08195  63.4236 150.7643 6701893 291.1691  12.4565  2.02099144350145
MOLNIYA 1-32            
1 08601U 76006A   23157.49076830  .00000890  00000+0  00000+0 0  9994
2 08601  63.5845 251.0799 7065774 283.7276  12.3752  2.00068454346082
MOLNIYA 1-36            
1 09880U 77021A   23159.24211980  .00000449  00000+0  00000+0 0  9994
2 09880  63.4418 224.2690 6974880 289.1872  11.5410  2.00331357236509
MOLNIYA 3-8             
1 10455U 77105A   23160.01276341  .00001157  00000+0  84306-2 0  9997
2 10455  63.5204 304.9777 7271103 282.7582  11.1967  2.00514536334213
MOLNIYA 1-40            
1 10925U 78055A   23157.60912854  .00000108  00000+0  00000+0 0  9992
2 10925  63.6976 357.6024 7259660 280.6326  11.6843  2.00513592329784
MOLNIYA 3-10            
1 11057U 78095A   23159.31280898 -.00000238  00000+0 -10797-2 0  9992
2 11057  63.2493 269.3325 5755840 312.9732  11.3145  4.09886773398315
MOLNIYA 3-13            
1 11896U 80063A   23158.86307542  .00000327  00000+0  00000+0 0  9996
2 11896  62.8779  90.1453 7219042 277.1163  13.0321  2.00578731314225
MOLNIYA 1-49            
1 12156U 81009A   23159.02837574  .00000823  00000+0  10988-3 0  9990
2 12156  61.7007 108.4171 7415173 268.5499  14.1149  2.05740723228801
MOLNIYA 1-52            
1 13012U 81123A   23159.19541844 -.00000609  00000+0 -14528-1 0  9995
2 13012  61.6111 228.2054 7163456 259.6556  19.7349  2.00839459303715
MOLNIYA 1-53            
1 13070U 82015A   23159.18286317  .00001518  00000+0  30711-1 0  9990
2 13070  62.5809 171.7719 6933794 283.2488  13.2212  2.00504565302397
MOLNIYA 3-20            
1 13875U 83015A   23157.84377097 -.00001335  00000+0  12230-2 0  9996
2 13875  62.3086 296.7333 7344309 261.7702  17.1579  2.00577959230828
MOLNIYA 1-56            
1 13890U 83019A   23158.75337516 -.00000508  00000+0  62797-3 0  9995
2 13890  62.7910 320.6862 7418745 267.4258  14.4335  2.00083715293702
MOLNIYA 1-63            
1 15429U 84124A   23158.35269969 -.00000725  00000+0  00000+0 0  9991
2 15429  63.6185 132.3760 6808398 257.3608 345.1302  2.00393984281879
MOLNIYA 3-24            
1 15738U 85040A   23159.14422163 -.00000150  00000+0 -11799-3 0  9991
2 15738  63.4348  14.5172 6896782 247.4206  29.5080  2.55630487312960
MOLNIYA 3-27            
1 16393U 85117A   23158.69243717 -.00000159  00000+0  00000+0 0  9996
2 16393  64.1228  33.1827 7104252 246.3423  27.6656  2.12396988281726
MOLNIYA 1-69            
1 17078U 86089A   23157.98884415 -.00000518  00000+0  00000+0 0  9992
2 17078  64.0619 151.9255 6784585 254.9691  25.9989  2.00985222267948
MOLNIYA 3-31            
1 17328U 87008A   23158.82330558 -.00000164  00000+0  00000+0 0  9997
2 17328  63.5552  83.6664 7229992 252.9900  22.2125  2.00564863263020
MOLNIYA 1-71            
1 18946U 88017A   23158.81915804  .00000247  00000+0  13602-3 0  9994
2 18946  63.2988  74.5751 7333375 256.5447  19.3650  2.00661491258186
MOLNIYA 1-75            
1 19807U 89014A   23158.67586530 -.00001009  00000+0  00000+0 0  9995
2 19807  63.8415 246.8968 6720375 264.9499  21.5607  2.00316797251127
MOLNIYA 1-80            
1 21118U 91012A   23158.82408652 -.00000706  00000+0  00000+0 0  9992
2 21118  65.1522 295.2042 6672145 272.9414  18.5405  2.05241545238273
MOLNIYA 3-40            
1 21196U 91022A   23159.48150856  .00000403  00000+0  00000+0 0  9995
2 21196  65.0061 288.9525 6698062 269.9048  19.5577  2.03018001236889
MOLNIYA 1-81            
1 21426U 91043A   23158.93940075  .00000052  00000+0  00000+0 0  9993
2 21426  63.8612 299.5773 7016351 265.1059  18.7505  2.00599672234292
MOLNIYA 3-41            
1 21706U 91065A   23159.15875442  .00001266  00000+0  00000+0 0  9996
2 21706  64.0519 125.3585 7027368 252.8418  24.5588  2.04340415234133
MOLNIYA 3-42            
1 22178U 92067A   23158.09369360  .00000210  00000+0  00000+0 0  9990
2 22178  64.6783 178.8625 6441932 261.1331  26.1154  2.20435394 87870
MOLNIYA 1-86            
1 22671U 93035A   23160.15175463  .00000221  00000+0  44286-3 0  9993
2 22671  63.1369  29.4196 4846648  12.6956 356.1942  5.62941321372328
MOLNIYA 1-87            
1 22949U 93079A   23156.98735737  .00000743  00000+0  00000+0 0  9992
2 22949  64.4381  51.0548 6950470 281.8746  13.4801  2.02845263 82104
MOLNIYA 1-88            
1 23420U 94081A   23159.85063652  .00000083  00000+0  00000+0 0  9997
2 23420  64.3020 117.1546 5822305 276.3994  24.0771  3.34497270258867
MOLNIYA 3-47            
1 23642U 95042A   23154.84057181  .00001193  00000+0  00000+0 0  9998
2 23642  64.5819  32.7196 6975026 282.1158  13.2215  2.01947334204117
MOLNIYA 1-90            
1 24960U 97054A   23159.86636842 -.00000002  00000+0 -51670-2 0  9993
2 24960  63.8460  82.2974 6101315 295.8561  14.6295  3.18689712219447
MOLNIYA 1-91            
1 25485U 98054A   23158.67261530  .00000097  00000+0  00000+0 0  9993
2 25485  63.3089  94.8799 6788916 291.7223  11.8650  2.36445139187433
MOLNIYA 3-50            
1 25847U 99036A   23159.38877507  .00000028  00000+0 -12651-3 0  9996
2 25847  63.3447 281.7813 7242011 282.8273  11.4354  2.00584445175254
